2        # Number of orbitals
500     # Number of imag. Matsubara frequencies
2048     # Number of imag. time points
4.0      # U value [eV]
0.1      # J value [eV]
1.0      # t value (half bandwidth, Bethe lattice) [eV]
2.2      # filling total number of electrons
10.0     # inverse temperature beta [1/eV]
0        # restart from old calculation (Sigma.dat needed)
1.0      # mixing
1        # init Sigma with HartreeFock
1        # subtract initial HartreeFock as DC
1        # recalc DC from impurity
